…
This tibble shows the number of counts per herigh range id. This would
have been a helpful function to use when I was completing my mini data
analysis deliverable 2 as I had to wrtie out the same format of
variables mjultiple times and it was not efficent.

``` r
# Example 2
counter(vancouver_trees, cultivar_name )
```

    ## # A tibble: 294 × 2
    ##    cultivar_name       n
    ##    <chr>           <int>
    ##  1 ACCOLADE           60
    ##  2 AKEBONO          2384
    ##  3 ALIA                3
    ##  4 ALLGOLD            78
    ##  5 ALMIRA              9
    ##  6 AMANOGAWA          68
    ##  7 AMERICAN BEAUTY     3
    ##  8 APOLLO             17
    ##  9 ARIE PETERS       697
    ## 10 ARISTOCRAT        607
    ## # ℹ 284 more rows

Alongside the cultivar names, the tibble also shows the number of trees
that are not accounted for without a cultivar in the NA category.

``` r
# Example 3
counter(vancouver_trees, genus_name )
```

    ## # A tibble: 97 × 2
    ##    genus_name      n
    ##    <chr>       <int>
    ##  1 ABIES         190
    ##  2 ACER        36062
    ##  3 AESCULUS     2570
    ##  4 AILANTHUS       4
    ##  5 ALBIZIA         1
    ##  6 ALNUS          74
    ##  7 AMELANCHIER   226
    ##  8 ARALIA          4
    ##  9 ARAUCARIA      10
    ## 10 ARBUTUS        10
    ## # ℹ 87 more rows
…
